{
  "project_info": {
    "project_number": "740986985682",
    "firebase_url": "https://textdemo-71875.firebaseio.com",
    "project_id": "textdemo-71875",
    "storage_bucket": "textdemo-71875.appspot.com"
  },
  "client": [
    {
      "client_info": {
        "mobilesdk_app_id": "1:740986985682:android:7a3817933a4866a817610b",
        "android_client_info": {
          "package_name": "com.example.textdemo"
        }
      },
      "oauth_client": [
        {
          "client_id": "740986985682-tb328j20pje2lpf1en9ttn5th9qfnin7.apps.googleusercontent.com",
          "client_type": 3
        }
      ],
      "api_key": [
        {
          "current_key": "AIzaSyB1YKtGSFxWVJWhneTlGBH5vltTOr8Gsqc"
        }
      ],
      "services": {
        "appinvite_service": {
          "other_platform_oauth_client": [
            {
              "client_id": "740986985682-tb328j20pje2lpf1en9ttn5th9qfnin7.apps.googleusercontent.com",
              "client_type": 3
            }
          ]
        }
      }
    }
  ],
  "configuration_version": "1"
}